%YAML 1.1
%TAG !u! tag:unity3d.com,2011:
--- !u!319 &31900000
AvatarMask:
  m_ObjectHideFlags: 0
  m_PrefabParentObject: {fileID: 0}
  m_PrefabInternal: {fileID: 0}
  m_Name: PlayerBody
  m_Mask: 01000000010000000100000001000000010000000000000000000000000000000000000000000000000000000000000000000000
  m_Elements:
  - m_Path: 
    m_Weight: 1
  - m_Path: H_DDS_MidRes
    m_Weight: 1
  - m_Path: Lights
    m_Weight: 1
  - m_Path: Lights/spotLight1
    m_Weight: 1
  - m_Path: Lights/spotLight2
    m_Weight: 1
  - m_Path: Lights/spotLight3
    m_Weight: 1
  - m_Path: Lights/spotLight4
    m_Weight: 1
  - m_Path: m_L_eye
    m_Weight: 1
  - m_Path: m_L_gland
    m_Weight: 1
  - m_Path: m_L_trans
    m_Weight: 1
  - m_Path: m_R_eye
    m_Weight: 1
  - m_Path: m_R_gland
    m_Weight: 1
  - m_Path: m_R_trans
    m_Weight: 1
  - m_Path: m_TeethDown
    m_Weight: 1
  - m_Path: m_TeethUp
    m_Weight: 1
  - m_Path: master
    m_Weight: 1
  - m_Path: master/Reference
    m_Weight: 1
  - m_Path: master/Reference/Hips
    m_Weight: 1
  - m_Path: master/Reference/Hips/LeftUpLeg
    m_Weight: 1
  - m_Path: master/Reference/Hips/LeftUpLeg/LeftLeg
    m_Weight: 1
  - m_Path: master/Reference/Hips/LeftUpLeg/LeftLeg/LeftFoot
    m_Weight: 1
  - m_Path: master/Reference/Hips/LeftUpLeg/LeftLeg/LeftFoot/LeftToeBase
    m_Weight: 1
  - m_Path: master/Reference/Hips/LeftUpLeg/LeftLeg/LeftFoot/LeftToeBase/LeftToeEnd
    m_Weight: 1
  - m_Path: master/Reference/Hips/RightUpLeg
    m_Weight: 1
  - m_Path: master/Reference/Hips/RightUpLeg/RightLeg
    m_Weight: 1
  - m_Path: master/Reference/Hips/RightUpLeg/RightLeg/RightFoot
    m_Weight: 1
  - m_Path: master/Reference/Hips/RightUpLeg/RightLeg/RightFoot/RightToeBase
    m_Weight: 1
  - m_Path: master/Reference/Hips/RightUpLeg/RightLeg/RightFoot/RightToeBase/RightToeEnd
    m_Weight: 1
  - m_Path: master/Reference/Hips/Spine
    m_Weight: 1
  - m_Path: master/Reference/Hips/Spine/Spine1
    m_Weight: 1
  - m_Path: master/Reference/Hips/Spine/Spine1/Spine2
    m_Weight: 1
  - m_Path: master/Reference/Hips/Spine/Spine1/Spine2/LeftShoulder
    m_Weight: 1
  - m_Path: master/Reference/Hips/Spine/Spine1/Spine2/LeftShoulder/LeftArm
    m_Weight: 1
  - m_Path: master/Reference/Hips/Spine/Spine1/Spine2/LeftShoulder/LeftArm/LeftForeArm
    m_Weight: 1
  - m_Path: master/Reference/Hips/Spine/Spine1/Spine2/LeftShoulder/LeftArm/LeftForeArm/LeftHand
    m_Weight: 1
  - m_Path: master/Reference/Hips/Spine/Spine1/Spine2/LeftShoulder/LeftArm/LeftForeArm/LeftHand/LeftFingerBase
    m_Weight: 1
  - m_Path: master/Reference/Hips/Spine/Spine1/Spine2/LeftShoulder/LeftArm/LeftForeArm/LeftHand/LeftFingerBase/LeftHandIndex1
    m_Weight: 1
  - m_Path: master/Reference/Hips/Spine/Spine1/Spine2/LeftShoulder/LeftArm/LeftForeArm/LeftHand/LeftFingerBase/LeftHandIndex1/LeftHandIndex2
    m_Weight: 1
  - m_Path: master/Reference/Hips/Spine/Spine1/Spine2/LeftShoulder/LeftArm/LeftForeArm/LeftHand/LeftFingerBase/LeftHandIndex1/LeftHandIndex2/LeftHandIndex3
    m_Weight: 1
  - m_Path: master/Reference/Hips/Spine/Spine1/Spine2/LeftShoulder/LeftArm/LeftForeArm/LeftHand/LeftFingerBase/LeftHandIndex1/LeftHandIndex2/LeftHandIndex3/LeftHandIndex4
    m_Weight: 1
  - m_Path: master/Reference/Hips/Spine/Spine1/Spine2/LeftShoulder/LeftArm/LeftForeArm/LeftHand/LeftFingerBase/LeftHandMiddle1
    m_Weight: 1
  - m_Path: master/Reference/Hips/Spine/Spine1/Spine2/LeftShoulder/LeftArm/LeftForeArm/LeftHand/LeftFingerBase/LeftHandMiddle1/LeftHandMiddle2
    m_Weight: 1
  - m_Path: master/Reference/Hips/Spine/Spine1/Spine2/LeftShoulder/LeftArm/LeftForeArm/LeftHand/LeftFingerBase/LeftHandMiddle1/LeftHandMiddle2/LeftHandMiddle3
    m_Weight: 1
  - m_Path: master/Reference/Hips/Spine/Spine1/Spine2/LeftShoulder/LeftArm/LeftForeArm/LeftHand/LeftFingerBase/LeftHandMiddle1/LeftHandMiddle2/LeftHandMiddle3/LeftHandMiddle4
    m_Weight: 1
  - m_Path: master/Reference/Hips/Spine/Spine1/Spine2/LeftShoulder/LeftArm/LeftForeArm/LeftHand/LeftFingerBase/LeftHandPinky1
    m_Weight: 1
  - m_Path: master/Reference/Hips/Spine/Spine1/Spine2/LeftShoulder/LeftArm/LeftForeArm/LeftHand/LeftFingerBase/LeftHandPinky1/LeftHandPinky2
    m_Weight: 1
  - m_Path: master/Reference/Hips/Spine/Spine1/Spine2/LeftShoulder/LeftArm/LeftForeArm/LeftHand/LeftFingerBase/LeftHandPinky1/LeftHandPinky2/LeftHandPinky3
    m_Weight: 1
  - m_Path: master/Reference/Hips/Spine/Spine1/Spine2/LeftShoulder/LeftArm/LeftForeArm/LeftHand/LeftFingerBase/LeftHandPinky1/LeftHandPinky2/LeftHandPinky3/LeftHandPinky4
    m_Weight: 1
  - m_Path: master/Reference/Hips/Spine/Spine1/Spine2/LeftShoulder/LeftArm/LeftForeArm/LeftHand/LeftFingerBase/LeftHandRing1
    m_Weight: 1
  - m_Path: master/Reference/Hips/Spine/Spine1/Spine2/LeftShoulder/LeftArm/LeftForeArm/LeftHand/LeftFingerBase/LeftHandRing1/LeftHandRing2
    m_Weight: 1
  - m_Path: master/Reference/Hips/Spine/Spine1/Spine2/LeftShoulder/LeftArm/LeftForeArm/LeftHand/LeftFingerBase/LeftHandRing1/LeftHandRing2/LeftHandRing3
    m_Weight: 1
  - m_Path: master/Reference/Hips/Spine/Spine1/Spine2/LeftShoulder/LeftArm/LeftForeArm/LeftHand/LeftFingerBase/LeftHandRing1/LeftHandRing2/LeftHandRing3/LeftHandRing4
    m_Weight: 1
  - m_Path: master/Reference/Hips/Spine/Spine1/Spine2/LeftShoulder/LeftArm/LeftForeArm/LeftHand/LeftFingerBase/LeftHandThumb1
    m_Weight: 1
  - m_Path: master/Reference/Hips/Spine/Spine1/Spine2/LeftShoulder/LeftArm/LeftForeArm/LeftHand/LeftFingerBase/LeftHandThumb1/LeftHandThumb2
    m_Weight: 1
  - m_Path: master/Reference/Hips/Spine/Spine1/Spine2/LeftShoulder/LeftArm/LeftForeArm/LeftHand/LeftFingerBase/LeftHandThumb1/LeftHandThumb2/LeftHandThumb3
    m_Weight: 1
  - m_Path: master/Reference/Hips/Spine/Spine1/Spine2/LeftShoulder/LeftArm/LeftForeArm/LeftHand/LeftFingerBase/LeftHandThumb1/LeftHandThumb2/LeftHandThumb3/LeftHandThumb4
    m_Weight: 1
  - m_Path: master/Reference/Hips/Spine/Spine1/Spine2/Neck
    m_Weight: 1
  - m_Path: master/Reference/Hips/Spine/Spine1/Spine2/Neck/Head
    m_Weight: 1
  - m_Path: master/Reference/Hips/Spine/Spine1/Spine2/Neck/Head/HeadEnd
    m_Weight: 1
  - m_Path: master/Reference/Hips/Spine/Spine1/Spine2/Neck/Head/LeftEye
    m_Weight: 1
  - m_Path: master/Reference/Hips/Spine/Spine1/Spine2/Neck/Head/RightEye
    m_Weight: 1
  - m_Path: master/Reference/Hips/Spine/Spine1/Spine2/RightShoulder
    m_Weight: 1
  - m_Path: master/Reference/Hips/Spine/Spine1/Spine2/RightShoulder/RightArm
    m_Weight: 1
  - m_Path: master/Reference/Hips/Spine/Spine1/Spine2/RightShoulder/RightArm/RightForeArm
    m_Weight: 1
  - m_Path: master/Reference/Hips/Spine/Spine1/Spine2/RightShoulder/RightArm/RightForeArm/RightHand
    m_Weight: 1
  - m_Path: master/Reference/Hips/Spine/Spine1/Spine2/RightShoulder/RightArm/RightForeArm/RightHand/RightFingerBase
    m_Weight: 1
  - m_Path: master/Reference/Hips/Spine/Spine1/Spine2/RightShoulder/RightArm/RightForeArm/RightHand/RightFingerBase/RightHandIndex1
    m_Weight: 1
  - m_Path: master/Reference/Hips/Spine/Spine1/Spine2/RightShoulder/RightArm/RightForeArm/RightHand/RightFingerBase/RightHandIndex1/RightHandIndex2
    m_Weight: 1
  - m_Path: master/Reference/Hips/Spine/Spine1/Spine2/RightShoulder/RightArm/RightForeArm/RightHand/RightFingerBase/RightHandIndex1/RightHandIndex2/RightHandIndex3
    m_Weight: 1
  - m_Path: master/Reference/Hips/Spine/Spine1/Spine2/RightShoulder/RightArm/RightForeArm/RightHand/RightFingerBase/RightHandIndex1/RightHandIndex2/RightHandIndex3/RightHandIndex4
    m_Weight: 1
  - m_Path: master/Reference/Hips/Spine/Spine1/Spine2/RightShoulder/RightArm/RightForeArm/RightHand/RightFingerBase/RightHandMiddle1
    m_Weight: 1
  - m_Path: master/Reference/Hips/Spine/Spine1/Spine2/RightShoulder/RightArm/RightForeArm/RightHand/RightFingerBase/RightHandMiddle1/RightHandMiddle2
    m_Weight: 1
  - m_Path: master/Reference/Hips/Spine/Spine1/Spine2/RightShoulder/RightArm/RightForeArm/RightHand/RightFingerBase/RightHandMiddle1/RightHandMiddle2/RightHandMiddle3
    m_Weight: 1
  - m_Path: master/Reference/Hips/Spine/Spine1/Spine2/RightShoulder/RightArm/RightForeArm/RightHand/RightFingerBase/RightHandMiddle1/RightHandMiddle2/RightHandMiddle3/RightHandMiddle4
    m_Weight: 1
  - m_Path: master/Reference/Hips/Spine/Spine1/Spine2/RightShoulder/RightArm/RightForeArm/RightHand/RightFingerBase/RightHandPinky1
    m_Weight: 1
  - m_Path: master/Reference/Hips/Spine/Spine1/Spine2/RightShoulder/RightArm/RightForeArm/RightHand/RightFingerBase/RightHandPinky1/RightHandPinky2
    m_Weight: 1
  - m_Path: master/Reference/Hips/Spine/Spine1/Spine2/RightShoulder/RightArm/RightForeArm/RightHand/RightFingerBase/RightHandPinky1/RightHandPinky2/RightHandPinky3
    m_Weight: 1
  - m_Path: master/Reference/Hips/Spine/Spine1/Spine2/RightShoulder/RightArm/RightForeArm/RightHand/RightFingerBase/RightHandPinky1/RightHandPinky2/RightHandPinky3/RightHandPinky4
    m_Weight: 1
  - m_Path: master/Reference/Hips/Spine/Spine1/Spine2/RightShoulder/RightArm/RightForeArm/RightHand/RightFingerBase/RightHandRing1
    m_Weight: 1
  - m_Path: master/Reference/Hips/Spine/Spine1/Spine2/RightShoulder/RightArm/RightForeArm/RightHand/RightFingerBase/RightHandRing1/RightHandRing2
    m_Weight: 1
  - m_Path: master/Reference/Hips/Spine/Spine1/Spine2/RightShoulder/RightArm/RightForeArm/RightHand/RightFingerBase/RightHandRing1/RightHandRing2/RightHandRing3
    m_Weight: 1
  - m_Path: master/Reference/Hips/Spine/Spine1/Spine2/RightShoulder/RightArm/RightForeArm/RightHand/RightFingerBase/RightHandRing1/RightHandRing2/RightHandRing3/RightHandRing4
    m_Weight: 1
  - m_Path: master/Reference/Hips/Spine/Spine1/Spine2/RightShoulder/RightArm/RightForeArm/RightHand/RightFingerBase/RightHandThumb1
    m_Weight: 1
  - m_Path: master/Reference/Hips/Spine/Spine1/Spine2/RightShoulder/RightArm/RightForeArm/RightHand/RightFingerBase/RightHandThumb1/RightHandThumb2
    m_Weight: 1
  - m_Path: master/Reference/Hips/Spine/Spine1/Spine2/RightShoulder/RightArm/RightForeArm/RightHand/RightFingerBase/RightHandThumb1/RightHandThumb2/RightHandThumb3
    m_Weight: 1
  - m_Path: master/Reference/Hips/Spine/Spine1/Spine2/RightShoulder/RightArm/RightForeArm/RightHand/RightFingerBase/RightHandThumb1/RightHandThumb2/RightHandThumb3/RightHandThumb4
    m_Weight: 1
