ObviousExitWallGazeCollider; 67.67419; 67.84353; 0.1693344
ObviousExitWallGazeCollider; 70.07809; 70.17574; 0.09764099
ObviousExitWallGazeCollider; 76.77509; 77.18268; 0.4075928
ObviousExitWallGazeCollider; 150.7868; 150.8826; 0.09579468
ObviousExitWallGazeCollider; 180.0538; 180.125; 0.07119751
ObviousExitWallGazeCollider; 180.8656; 180.9376; 0.07199097
ObviousExitWallGazeCollider; 188.1348; 188.207; 0.07228088
ObviousExitWallGazeCollider; 188.4064; 188.4685; 0.06210327
ObviousExitWallGazeCollider; 209.3685; 209.432; 0.06355286
